\beamer@sectionintoc {1}{Introduction}{2}{0}{1}
\beamer@sectionintoc {2}{D\IeC {\'e}finitions et enjeux informatiques}{18}{0}{2}
\beamer@sectionintoc {3}{Algorithmes}{27}{0}{3}
\beamer@sectionintoc {4}{R\IeC {\'e}fl\IeC {\'e}xions}{43}{0}{4}
\beamer@sectionintoc {5}{Conclusion}{48}{0}{5}
